7 crosstable – Rパッケージ活用事例集
…
7.3 クロス集計表の作成

まずはcrosstable関数に他の引数を何も設定せずにmtcars2をそのまま入れてみます。このままではよくわかりません。

crosstable(mtcars2)

# A tibble: 78 × 4
   .id   label variable           value    
   <chr> <chr> <chr>              <chr>    
 1 model Model AMC Javelin        1 (3.12%)
 2 model Model Cadillac Fleetwood 1 (3.12%)
 3 model Model Camaro Z28         1 (3.12%)
 4 model Model Chrysler Imperial  1 (3.12%)
 5 model Model Datsun 710         1 (3.12%)
 6 model Model Dodge Challenger   1 (3.12%)
 7 model Model Duster 360         1 (3.12%)
 8 model Model Ferrari Dino       1 (3.12%)
 9 model Model Fiat 128           1 (3.12%)
10 model Model Fiat X1-9          1 (3.12%)
# ℹ 68 more rows
…
